[
  {
    "type": "video",
    "autoplay": true,
    "loop": true,
    "source": [
      {"src": "content/rabbit320.mp4", "type": "video/mp4"},
      {"src": "content/rabbit320.webm", "type": "video/webm"}
    ],
    "meta": {
      "caption": "Rabbit 320"
    }
  },
  {
    "type": "audio",
    "poster": "content/poster.png",
    "source": [
      {"src": "content/viper.mp3", "type": "audio/mp3"},
      {"src": "content/viper.ogg", "type": "audio/ogg"}
    ],
    "meta": {
      "caption": "Viper",
      "date": "21/04/2080"
    }
  },
  {
    "type": "picture",
    "source": [
      {"srcset": "content/pic2.jpg", "type": "image/jpeg"}
    ],
    "src": "content/pic2.jpg"
  },
  {
    "type": "video",
    "cover": true,
    "source": [
      {"src": "content/sintel-short.mp4", "type": "video/mp4"},
      {"src": "content/sintel-short.webm", "type": "video/webm"}
    ],
    "meta": {
      "caption": "sintel short"
    }
  },
  {
    "type": "picture",
    "cover": true,
    "src": "content/pic3.jpg",
    "meta": {
      "caption": "cover image"
    }
  }
]